{
  "kind": "collectionType",
  "collectionName": "prefills",
  "info": {
    "name": "prefill",
    "description": ""
  },
  "options": {
    "increments": true,
    "timestamps": true,
    "draftAndPublish": false
  },
  "pluginOptions": {},
  "attributes": {
    "type": {
      "type": "enumeration",
      "enum": [
        "case_study",
        "company",
        "job"
      ]
    },
    "field": {
      "type": "string"
    },
    "items": {
      "type": "dynamiczone",
      "components": [
        "company.featured",
        "company.good-stuff",
        "company.content",
        "company.summary",
        "job.good-stuff",
        "job.content",
        "case-study.interview-question",
        "case-study.featured",
        "single-prefill.richtext",
        "single-prefill.text"
      ]
    }
  }
}
