{
  "routes": [
    {
      "method": "GET",
      "path": "/content-api/case-studies",
      "handler": "case-study.find",
      "config": {
        "policies": []
      }
    },
    {
      "method": "GET",
      "path": "/content-api/case-studies/count",
      "handler": "case-study.count",
      "config": {
        "policies": []
      }
    },
    {
      "method": "GET",
      "path": "/content-api/case-studies/:id",
      "handler": "case-study.findOne",
      "config": {
        "policies": []
      }
    },
    {
      "method": "POST",
      "path": "/insecure-content-api/case-studies",
      "handler": "case-study.create",
      "config": {
        "policies": []
      }
    }
  ]
}
