{
    "collectionName": "company_contents",
    "info": {
		"name": "content",
		"icon": "address-book"
    },
    "options": {},
    "attributes": {
		"icon": {
			"model": "file",
			"via": "related",
			"allowedTypes": [
				"images"
			],
			"plugin": "upload",
			"required": false,
			"pluginOptions": {}
		},
		"heading": {
			"type": "string"
		},
		"content": {
			"type": "richtext"
		}
    }
}