{
  "kind": "collectionType",
  "collectionName": "faqs",
  "info": {
    "name": "faq"
  },
  "options": {
    "increments": true,
    "timestamps": true
  },
  "pluginOptions": {},
  "attributes": {
    "question": {
      "type": "string"
    },
    "answer": {
      "type": "richtext"
    }
  }
}
